{
  "project_info": {
    "project_number": "557059153286",
    "firebase_url": "https://tour-takers-366a2.firebaseio.com",
    "project_id": "tour-takers-366a2",
    "storage_bucket": "tour-takers-366a2.appspot.com"
  },
  "client": [
    {
      "client_info": {
        "mobilesdk_app_id": "1:557059153286:android:ce21c8252109c94880e007",
        "android_client_info": {
          "package_name": "com.example.tourtakersforguide"
        }
      },
      "oauth_client": [
        {
          "client_id": "557059153286-al9tnb4mcpsnkvhq0tqciisah495e9en.apps.googleusercontent.com",
          "client_type": 1,
          "android_info": {
            "package_name": "com.example.tourtakersforguide",
            "certificate_hash": "8285b8ac39ac7d90559b0eec152c5c38412db972"
          }
        },
        {
          "client_id": "557059153286-hhe7p9bnopi4ckrfolunh0l69st44ud0.apps.googleusercontent.com",
          "client_type": 3
        }
      ],
      "api_key": [
        {
          "current_key": "AIzaSyBUSm_havgAUjWBdACoRbw6yGYiI8cU8-4"
        }
      ],
      "services": {
        "appinvite_service": {
          "other_platform_oauth_client": [
            {
              "client_id": "557059153286-hhe7p9bnopi4ckrfolunh0l69st44ud0.apps.googleusercontent.com",
              "client_type": 3
            }
          ]
        }
      }
    },
    {
      "client_info": {
        "mobilesdk_app_id": "1:557059153286:android:88a8a8f32058916280e007",
        "android_client_info": {
          "package_name": "com.example.tureguideversion1"
        }
      },
      "oauth_client": [
        {
          "client_id": "557059153286-riiemcbcfnrjd0me2svkrpfllvuu5k95.apps.googleusercontent.com",
          "client_type": 1,
          "android_info": {
            "package_name": "com.example.tureguideversion1",
            "certificate_hash": "6501a086d85ea2c775bf207f9a7bb3d483230b66"
          }
        },
        {
          "client_id": "557059153286-cdllnf3rh410o0oneie75q8aovj4l15h.apps.googleusercontent.com",
          "client_type": 1,
          "android_info": {
            "package_name": "com.example.tureguideversion1",
            "certificate_hash": "b3c1bd03698543fbee55dc70896df8964bab3786"
          }
        },
        {
          "client_id": "557059153286-db1h6idvq676rj3c8uh6o263kkoc9n9d.apps.googleusercontent.com",
          "client_type": 1,
          "android_info": {
            "package_name": "com.example.tureguideversion1",
            "certificate_hash": "8285b8ac39ac7d90559b0eec152c5c38412db972"
          }
        },
        {
          "client_id": "557059153286-hhe7p9bnopi4ckrfolunh0l69st44ud0.apps.googleusercontent.com",
          "client_type": 3
        }
      ],
      "api_key": [
        {
          "current_key": "AIzaSyBUSm_havgAUjWBdACoRbw6yGYiI8cU8-4"
        }
      ],
      "services": {
        "appinvite_service": {
          "other_platform_oauth_client": [
            {
              "client_id": "557059153286-hhe7p9bnopi4ckrfolunh0l69st44ud0.apps.googleusercontent.com",
              "client_type": 3
            }
          ]
        }
      }
    }
  ],
  "configuration_version": "1"
}